{
  "project_info": {
    "project_number": "291618570534",
    "firebase_url": "https://eniac-portal.firebaseio.com",
    "project_id": "eniac-portal",
    "storage_bucket": "eniac-portal.appspot.com"
  },
  "client": [
    {
      "client_info": {
        "mobilesdk_app_id": "1:291618570534:android:a873884d889d7a43",
        "android_client_info": {
          "package_name": "net.megamil.eniacportal"
        }
      },
      "oauth_client": [],
      "api_key": [
        {
          "current_key": "AIzaSyCGF6RdIx2zff2wUSzE3aIUDUScFJOAlCQ"
        }
      ],
      "services": {
        "appinvite_service": {
          "other_platform_oauth_client": [
            {
              "client_id": "291618570534-b7ehe77q6eb8t8fv8o6u9meeqr8k5bve.apps.googleusercontent.com",
              "client_type": 3
            }
          ]
        }
      }
    }
  ],
  "configuration_version": "1"
}